Chapter 2 Marcos de datos y Tibbles | R en las Ciencias Agropecuarias
…
Especificar los nombres de las columnas del marco de datos

data.frame(___ = ___, 
           ___ = ___, 
           ...)

2.1.1 Introducción a los marcos de datos

En análisis y estadísticas, los datos tabulares son la estructura de datos más importante. Está presente en muchos formatos comunes como archivos de Excel, valores separados por comas (CSV) o bases de datos. R integra objetos de datos tabulares como ciudadanos de primera clase en el idioma a través de marcos de datos. Los marcos de datos permiten a los usuarios leer y manipular fácilmente datos tabulares dentro del lenguaje R.

Echemos un vistazo a un objeto de marco de datos llamado Davis, del paquete carData, que incluye medidas de altura y peso para 200 hombres y mujeres:

tibble (Davis)

## # A tibble: 200 x 5
##    sex   weight height repwt repht
##    <fct>  <int>  <int> <int> <int>
##  1 M         77    182    77   180
##  2 F         58    161    51   159
##  3 F         53    161    54   158
##  4 M         68    177    70   175
##  5 F         59    157    59   155
##  6 M         76    170    76   165
##  7 M         76    167    77   165
##  8 M         69    186    73   180
##  9 M         71    178    71   175
## 10 M         65    171    64   170
## # … with 190 more rows
…
2.2.1 Introducción a Tibbles

Una reinvención moderna del marco de datos
https://tibble.tidyverse.org

Tibbles son en muchos aspectos similares a los marcos de datos. De hecho, se heredan de los marcos de datos, lo que significa que todas las funciones y características disponibles para los marcos de datos también funcionan para tibbles. Por tanto, cuando hablamos de marcos de datos también nos referimos a tibbles.

Además de todo lo que ofrece un marco de datos, los tibbles tienen un comportamiento más consistente con una mejor usabilidad en muchos casos. Lo más importante es que cuando se imprime un objeto tibble en la consola, muestra automáticamente solo las primeras 10 filas y condensa columnas adicionales. Por el contrario, un marco de datos llena toda la pantalla de la consola con valores que pueden generar confusión. Echemos un vistazo al conjunto de datos gapminder del paquete gapminder:

gapminder::gapminder

## # A tibble: 1,704 x 6
##    country     continent  year lifeExp      pop gdpPercap
##    <fct>       <fct>     <int>   <dbl>    <int>     <dbl>
##  1 Afghanistan Asia       1952    28.8  8425333      779.
##  2 Afghanistan Asia       1957    30.3  9240934      821.
##  3 Afghanistan Asia       1962    32.0 10267083      853.
##  4 Afghanistan Asia       1967    34.0 11537966      836.
##  5 Afghanistan Asia       1972    36.1 13079460      740.
##  6 Afghanistan Asia       1977    38.4 14880372      786.
##  7 Afghanistan Asia       1982    39.9 12881816      978.
##  8 Afghanistan Asia       1987    40.8 13867957      852.
##  9 Afghanistan Asia       1992    41.7 16317921      649.
## 10 Afghanistan Asia       1997    41.8 22227415      635.
## # … with 1,694 more rows
…
2.2.3 Conversión de marcos de datos a Tibbles

Si prefiere tibbles a marcos de datos por sus características adicionales, también se pueden convertir a partir de marcos de datos existentes con la función as_tibble().

Por ejemplo, el marco de datos de Davis del paquete carData se puede convertir a un tibble así:

as_tibble(Davis)

## # A tibble: 200 x 5
##    sex   weight height repwt repht
##    <fct>  <int>  <int> <int> <int>
##  1 M         77    182    77   180
##  2 F         58    161    51   159
##  3 F         53    161    54   158
##  4 M         68    177    70   175
##  5 F         59    157    59   155
##  6 M         76    170    76   165
##  7 M         76    167    77   165
##  8 M         69    186    73   180
##  9 M         71    178    71   175
## 10 M         65    171    64   170
## # … with 190 more rows
…
